First
…
First

Julie, Oussama and Victória

2022-12-13

First dealing with data

# install.packages("readxl")
readxl::read_excel("data_dec/water_stress.xlsx")

## # A tibble: 1,260 × 23
##    Group Week  Date                Species PlantId Use   Treat…¹ Soil_…² Elect…³
##    <chr> <chr> <dttm>              <chr>   <chr>   <chr> <chr>     <dbl>   <dbl>
##  1 G1    W1    2022-10-05 00:00:00 Solanu… Slc1    cult… c          55.6    1.31
##  2 G1    W1    2022-10-05 00:00:00 Solanu… Slc2    cult… c          52.7    1.28
##  3 G1    W1    2022-10-05 00:00:00 Solanu… Slc3    cult… c          61.3    1.24
##  4 G1    W1    2022-10-05 00:00:00 Solanu… Slc4    cult… c          51      1.36
##  5 G1    W1    2022-10-05 00:00:00 Solanu… Slc5    cult… c          52.1    1.39
##  6 G1    W1    2022-10-05 00:00:00 Solanu… Slc6    cult… c          54.4    1.24
##  7 G1    W1    2022-10-05 00:00:00 Solanu… Slc7    cult… c          51.6    1.51
##  8 G1    W1    2022-10-05 00:00:00 Amaran… Arc1    wild  c          54.6    1.68
##  9 G1    W1    2022-10-05 00:00:00 Amaran… Arc2    wild  c          50.9    1.93
## 10 G1    W1    2022-10-05 00:00:00 Amaran… Arc3    wild  c          67.2    1.89
## # … with 1,250 more rows, 14 more variables: Too_dry <chr>, Plant_height <dbl>,
## #   Leaf_number <dbl>, Leaf_length <dbl>, Leaf_width <dbl>, Leaf_area <dbl>,
## #   Chlorophyll_content <dbl>, Aerial_fresh_weight <dbl>,
## #   Aerial_dry_weight <dbl>, Root_length <dbl>, Roots_fresh_weight <dbl>,
## #   Roots_dry_weight <dbl>, Mortality <chr>, Comments <lgl>, and abbreviated
## #   variable names ¹​Treatment, ²​Soil_humidity, ³​Electrical_conductivity
…
